<?xml version="1.0" encoding="UTF-8" standalone="no"?>
<svg
   xmlns:dc="http://purl.org/dc/elements/1.1/"
   xmlns:cc="http://creativecommons.org/ns#"
   xmlns:rdf="http://www.w3.org/1999/02/22-rdf-syntax-ns#"
   xmlns:svg="http://www.w3.org/2000/svg"
   xmlns="http://www.w3.org/2000/svg"
   id="svg8"
   version="1.1"
   viewBox="0 0 142.55312 42.733169"
   height="161.51118"
   width="538.78345">
  <defs
     id="defs2" />
  <metadata
     id="metadata5">
    <rdf:RDF>
      <cc:Work
         rdf:about="">
        <dc:format>image/svg+xml</dc:format>
        <dc:type
           rdf:resource="http://purl.org/dc/dcmitype/StillImage" />
        <dc:title></dc:title>
      </cc:Work>
    </rdf:RDF>
  </metadata>
  <g
     transform="translate(0.64233807,-0.46663693)"
     id="layer1">
    <path
       id="rect856-5"
       d="M 14.526761,5.7583036 4.6493286,8.5801576 V 36.054466 l 9.8774324,-2.82143 9.87795,4.6751 9.877433,-2.82143 V 7.6119746 l -9.877433,2.8214224 z"
       style="opacity:1;vector-effect:none;fill:#ffffff;fill-opacity:1;stroke:none;stroke-width:1.43061364;stroke-linecap:butt;stroke-linejoin:miter;stroke-miterlimit:4;stroke-dasharray:none;stroke-dashoffset:0;stroke-opacity:1;paint-order:markers stroke fill" />
    <path
       id="path2"
       d="m 10.632908,15.687612 c 0.843518,-0.855566 1.68703,-1.626775 2.060588,-1.470126 0.602512,0.241016 0,1.241166 -0.361484,1.831631 -0.301273,0.506108 -3.4463571,4.687514 -3.4463571,7.603698 0,1.542398 0.5784099,2.819723 1.6147231,3.590931 0.90377,0.674814 2.096737,0.879674 3.181256,0.554314 1.28937,-0.373469 2.349793,-1.687008 3.687364,-3.337886 1.458076,-1.795483 3.410209,-4.145286 4.916485,-4.145286 1.964184,0 1.988287,1.21708 2.120837,2.156969 -4.554978,0.771242 -6.48301,4.422474 -6.48301,6.470994 0,2.04852 1.73523,3.723508 3.868115,3.723508 1.964184,0 5.169541,-1.602698 5.651547,-7.350646 h 2.964352 V 22.30316 h -2.976402 c -0.180764,-1.988272 -1.313474,-5.061083 -4.856234,-5.061083 -2.711295,0 -5.036986,2.30162 -5.952801,3.422271 -0.698915,0.879684 -2.482343,2.988467 -2.759497,3.277671 -0.301275,0.361623 -0.819416,1.01222 -1.337576,1.01222 -0.542258,0 -0.867614,-1.000197 -0.433808,-2.313643 0.421739,-1.313484 1.687031,-3.446365 2.229289,-4.241702 0.939915,-1.373695 1.56653,-2.313627 1.56653,-3.952457 0,-2.614894 -1.976237,-3.446356 -3.024602,-3.446356 -1.590627,0 -2.9764029,1.205022 -3.2776585,1.506274 -0.4338078,0.433807 -0.7953132,0.795312 -1.0604163,1.120675 z m 11.194647,14.05054 c -0.373553,0 -0.891717,-0.313353 -0.891717,-0.867628 0,-0.723011 0.879666,-2.651032 3.45841,-3.325858 -0.361484,3.241509 -1.72318,4.193486 -2.566693,4.193486 z"
       style="fill:#242424;fill-opacity:1;stroke-width:1.20502067" />
    <g
       id="flowRoot1026"
       style="font-style:normal;font-weight:normal;font-size:40px;line-height:1.25;font-family:sans-serif;letter-spacing:0px;word-spacing:0px;fill:#ffffff;fill-opacity:1;stroke:none"
       transform="matrix(0.46724212,0,0,0.46724212,-30.254759,-0.29213721)"
       aria-label="Gribrouillon">
      <path
         id="path1038"
         style="font-style:normal;font-variant:normal;font-weight:bold;font-stretch:normal;font-family:Roboto;-inkscape-font-specification:'Roboto Bold';fill:#ffffff;fill-opacity:1"
         d="m 173.61133,58.564025 q -1.58203,1.894531 -4.47266,2.949219 -2.89062,1.035156 -6.40625,1.035156 -3.6914,0 -6.48437,-1.601562 -2.77344,-1.621094 -4.29688,-4.6875 -1.5039,-3.066407 -1.54297,-7.207032 v -1.933593 q 0,-4.257813 1.42578,-7.363282 1.44532,-3.125 4.14063,-4.765625 2.71484,-1.660156 6.34766,-1.660156 5.05859,0 7.91015,2.421875 2.85156,2.402344 3.37891,7.011719 h -5.70313 q -0.39062,-2.441406 -1.73828,-3.574219 -1.32812,-1.132812 -3.67187,-1.132812 -2.98828,0 -4.55078,2.246093 -1.5625,2.246094 -1.58204,6.679688 V 48.7984 q 0,4.472656 1.69922,6.757813 1.69922,2.285156 4.98047,2.285156 3.30078,0 4.70703,-1.40625 v -4.902344 h -5.33203 v -4.316406 h 11.19141 z" />
      <path
         id="path1040"
         style="font-style:normal;font-variant:normal;font-weight:bold;font-stretch:normal;font-family:Roboto;-inkscape-font-specification:'Roboto Bold';fill:#ffffff;fill-opacity:1"
         d="m 189.86133,46.317931 q -1.15235,-0.15625 -2.03125,-0.15625 -3.20313,0 -4.19922,2.167969 v 13.828125 h -5.64453 V 41.024963 h 5.33203 l 0.15625,2.519531 q 1.69922,-2.910156 4.70703,-2.910156 0.9375,0 1.75781,0.253906 z" />
      <path
         id="path1042"
         style="font-style:normal;font-variant:normal;font-weight:bold;font-stretch:normal;font-family:Roboto;-inkscape-font-specification:'Roboto Bold';fill:#ffffff;fill-opacity:1"
         d="m 198.5332,62.157775 h -5.66406 V 41.024963 h 5.66406 z m -5.99609,-26.601562 q 0,-1.269532 0.83984,-2.089844 0.85938,-0.820313 2.32422,-0.820313 1.44531,0 2.30469,0.820313 0.85937,0.820312 0.85937,2.089844 0,1.289062 -0.8789,2.109375 -0.85938,0.820312 -2.28516,0.820312 -1.42578,0 -2.30469,-0.820312 -0.85937,-0.820313 -0.85937,-2.109375 z" />
      <path
         id="path1044"
         style="font-style:normal;font-variant:normal;font-weight:bold;font-stretch:normal;font-family:Roboto;-inkscape-font-specification:'Roboto Bold';fill:#ffffff;fill-opacity:1"
         d="m 222.22461,51.786681 q 0,5.078125 -2.16797,7.929688 -2.16797,2.832031 -6.05469,2.832031 -3.4375,0 -5.48828,-2.636719 l -0.2539,2.246094 h -5.07813 v -30 h 5.64453 v 10.761719 q 1.95313,-2.285156 5.13672,-2.285156 3.86719,0 6.05469,2.851562 2.20703,2.832031 2.20703,7.988281 z m -5.64453,-0.410156 q 0,-3.203125 -1.01563,-4.667969 -1.01562,-1.484375 -3.02734,-1.484375 -2.69531,0 -3.71094,2.207032 v 8.339843 q 1.03516,2.226563 3.75,2.226563 2.73438,0 3.59375,-2.695313 0.41016,-1.289062 0.41016,-3.925781 z" />
      <path
         id="path1046"
         style="font-style:normal;font-variant:normal;font-weight:bold;font-stretch:normal;font-family:Roboto;-inkscape-font-specification:'Roboto Bold';fill:#ffffff;fill-opacity:1"
         d="m 237.57617,46.317931 q -1.15234,-0.15625 -2.03125,-0.15625 -3.20312,0 -4.19922,2.167969 v 13.828125 h -5.64453 V 41.024963 h 5.33203 l 0.15625,2.519531 q 1.69922,-2.910156 4.70703,-2.910156 0.9375,0 1.75782,0.253906 z" />
      <path
         id="path1048"
         style="font-style:normal;font-variant:normal;font-weight:bold;font-stretch:normal;font-family:Roboto;-inkscape-font-specification:'Roboto Bold';fill:#ffffff;fill-opacity:1"
         d="m 238.70898,51.396056 q 0,-3.144531 1.21094,-5.605468 1.21094,-2.460938 3.47656,-3.808594 2.28516,-1.347656 5.29297,-1.347656 4.27735,0 6.97266,2.617187 2.71484,2.617188 3.02734,7.109375 l 0.0391,1.445313 q 0,4.863281 -2.71485,7.8125 -2.71484,2.929687 -7.28515,2.929687 -4.57032,0 -7.30469,-2.929687 -2.71485,-2.929688 -2.71485,-7.96875 z m 5.64454,0.410157 q 0,3.007812 1.13281,4.609375 1.13281,1.582031 3.24219,1.582031 2.05078,0 3.20312,-1.5625 1.15234,-1.582031 1.15234,-5.039063 0,-2.949218 -1.15234,-4.570312 -1.15234,-1.621094 -3.24219,-1.621094 -2.07031,0 -3.20312,1.621094 -1.13281,1.601562 -1.13281,4.980469 z" />
      <path
         id="path1050"
         style="font-style:normal;font-variant:normal;font-weight:bold;font-stretch:normal;font-family:Roboto;-inkscape-font-specification:'Roboto Bold';fill:#ffffff;fill-opacity:1"
         d="m 274.86133,60.009338 q -2.08985,2.539062 -5.78125,2.539062 -3.39844,0 -5.19531,-1.953125 -1.77735,-1.953125 -1.81641,-5.722656 V 41.024963 h 5.64453 v 13.652343 q 0,3.300782 3.00781,3.300782 2.8711,0 3.94532,-1.992188 V 41.024963 h 5.66406 v 21.132812 h -5.3125 z" />
      <path
         id="path1052"
         style="font-style:normal;font-variant:normal;font-weight:bold;font-stretch:normal;font-family:Roboto;-inkscape-font-specification:'Roboto Bold';fill:#ffffff;fill-opacity:1"
         d="m 290.54492,62.157775 h -5.66406 V 41.024963 h 5.66406 z m -5.99609,-26.601562 q 0,-1.269532 0.83984,-2.089844 0.85938,-0.820313 2.32422,-0.820313 1.44531,0 2.30469,0.820313 0.85937,0.820312 0.85937,2.089844 0,1.289062 -0.8789,2.109375 -0.85938,0.820312 -2.28516,0.820312 -1.42578,0 -2.30469,-0.820312 -0.85937,-0.820313 -0.85937,-2.109375 z" />
      <path
         id="path1054"
         style="font-style:normal;font-variant:normal;font-weight:bold;font-stretch:normal;font-family:Roboto;-inkscape-font-specification:'Roboto Bold';fill:#ffffff;fill-opacity:1"
         d="m 301.15039,62.157775 h -5.66406 v -30 h 5.66406 z" />
      <path
         id="path1056"
         style="font-style:normal;font-variant:normal;font-weight:bold;font-stretch:normal;font-family:Roboto;-inkscape-font-specification:'Roboto Bold';fill:#ffffff;fill-opacity:1"
         d="m 311.75586,62.157775 h -5.66406 v -30 h 5.66406 z" />
      <path
         id="path1058"
         style="font-style:normal;font-variant:normal;font-weight:bold;font-stretch:normal;font-family:Roboto;-inkscape-font-specification:'Roboto Bold';fill:#ffffff;fill-opacity:1"
         d="m 315.52539,51.396056 q 0,-3.144531 1.21094,-5.605468 1.21094,-2.460938 3.47656,-3.808594 2.28516,-1.347656 5.29297,-1.347656 4.27734,0 6.97266,2.617187 2.71484,2.617188 3.02734,7.109375 l 0.0391,1.445313 q 0,4.863281 -2.71484,7.8125 -2.71485,2.929687 -7.28516,2.929687 -4.57031,0 -7.30469,-2.929687 -2.71484,-2.929688 -2.71484,-7.96875 z m 5.64453,0.410157 q 0,3.007812 1.13281,4.609375 1.13282,1.582031 3.24219,1.582031 2.05078,0 3.20313,-1.5625 1.15234,-1.582031 1.15234,-5.039063 0,-2.949218 -1.15234,-4.570312 -1.15235,-1.621094 -3.24219,-1.621094 -2.07031,0 -3.20313,1.621094 -1.13281,1.601562 -1.13281,4.980469 z" />
      <path
         id="path1060"
         style="font-style:normal;font-variant:normal;font-weight:bold;font-stretch:normal;font-family:Roboto;-inkscape-font-specification:'Roboto Bold';fill:#ffffff;fill-opacity:1"
         d="m 344.2168,41.024963 0.17578,2.441406 q 2.26562,-2.832031 6.07422,-2.832031 3.35937,0 5,1.972656 1.64062,1.972656 1.67968,5.898437 v 13.652344 h -5.64453 V 48.64215 q 0,-1.796875 -0.78125,-2.597656 -0.78125,-0.820313 -2.59765,-0.820313 -2.38282,0 -3.57422,2.03125 V 62.157775 H 338.9043 V 41.024963 Z" />
    </g>
  </g>
</svg>
